exports[`test LoanCard snapshot test 1`] = `
<div
  className="MuiGrid-typeItem-940994123 MuiGrid-grid-xs-3-1167563238">
  <a
    className="LoanCard-link-3100601123"
    href="/loan/84218"
    onClick={[Function]}>
    <div
      className="MuiPaper-paper-2677686717 MuiPaper-dp2-317043508 MuiPaper-rounded-418257787 MuiCard-card-772068234">
      <div
        className="MuiCardMedia-cardMedia-140605214">
        <div
          className="LoanCard-image-424008561"
          style={
            Object {
              "backgroundImage": "url(\'https://api.zonky.cz/loans/84218/photos/9339\')",
            }
          } />
      </div>
      <div
        className="MuiCardContent-cardContent-741240096">
        <h2
          className="MuiTypography-text-233331062 MuiTypography-headline-579169135">
          Refinancování půjček doplatek
        </h2>
        <p
          className="MuiTypography-text-233331062 MuiTypography-body1-2814455093">
          peníze budou použity na doplacení půjčky s vyšším úrokem, a z ušetřených úroků se bude postupně opravovat domeček na stáří.
        </p>
      </div>
    </div>
  </a>
</div>
`;
